PIPELINE/output.txt
[Running] processor.v
VCD info: dumpfile processor.vcd opened for output.

------------------------------------------------------------
Fetch stage :- clk=1 D_stat= x F_predPC=                   0 f_predPC=                   1 icode= x ifun= x
 		 > rsp =                   x rA= x rB= x valC=                   x D_valP=                   x
Decode stage :- clk=1 E_stat= x icode= x ifun= x rsp =                   x
 		 > valA=                   x valB=                   x valC=                   x destE= x destM= x srcA= x srcB= x
Execute stage :- clk=1 M_stat= x icode= x rsp =                   x
 		 > CND=x valA =                   x valE=                   x destE= x destM= x
Memory stage :- clk=1 W_stat= x icode= x rsp=                   x
 		 > valM =                   x valE=                   x destE= x destM= x
------------------------------------------------------------

------------------------------------------------------------
Fetch stage :- clk=1 D_stat= 8 F_predPC=                   1 f_predPC=                   2 icode= 1 ifun= 0
 		 > rsp =                 254 rA= x rB= x valC=                   x D_valP=                   1
Decode stage :- clk=1 E_stat= x icode= x ifun= x rsp =                 254
 		 > valA=                   x valB=                   x valC=                   x destE=15 destM=15 srcA=15 srcB=15
Execute stage :- clk=1 M_stat= x icode= x rsp =                 254
 		 > CND=x valA =                   x valE=                   x destE= x destM= x
Memory stage :- clk=1 W_stat= x icode= x rsp=                 254
 		 > valM =                   x valE=                   x destE= x destM= x
------------------------------------------------------------

------------------------------------------------------------
Fetch stage :- clk=1 D_stat= 8 F_predPC=                   2 f_predPC=                   4 icode= 1 ifun= 0
 		 > rsp =                 254 rA= x rB= x valC=                   x D_valP=                   2
Decode stage :- clk=1 E_stat= 8 icode= 1 ifun= 0 rsp =                 254
 		 > valA=                   x valB=                   x valC=                   x destE=15 destM=15 srcA=15 srcB=15
Execute stage :- clk=1 M_stat= x icode= x rsp =                 254
 		 > CND=x valA =                   x valE=                   x destE=15 destM=15
Memory stage :- clk=1 W_stat= x icode= x rsp=                 254
 		 > valM =                   x valE=                   x destE= x destM= x
------------------------------------------------------------

------------------------------------------------------------
Fetch stage :- clk=1 D_stat= 8 F_predPC=                   4 f_predPC=                  14 icode= 2 ifun= 0
 		 > rsp =                 254 rA= 1 rB= 2 valC=                   x D_valP=                   4
Decode stage :- clk=1 E_stat= 8 icode= 1 ifun= 0 rsp =                 254
 		 > valA=                   x valB=                   x valC=                   x destE=15 destM=15 srcA=15 srcB=15
Execute stage :- clk=1 M_stat= 8 icode= 1 rsp =                 254
 		 > CND=x valA =                   x valE=                   x destE=15 destM=15
Memory stage :- clk=1 W_stat= x icode= x rsp=                 254
 		 > valM =                   x valE=                   x destE=15 destM=15
------------------------------------------------------------

------------------------------------------------------------
Fetch stage :- clk=1 D_stat= 8 F_predPC=                  14 f_predPC=                  24 icode= 3 ifun= 0
 		 > rsp =                 254 rA=15 rB= 2 valC=                   2 D_valP=                  14
Decode stage :- clk=1 E_stat= 8 icode= 2 ifun= 0 rsp =                 254
 		 > valA=                  10 valB=                   0 valC=                   x destE= 2 destM=15 srcA= 1 srcB=15
Execute stage :- clk=1 M_stat= 8 icode= 1 rsp =                 254
 		 > CND=x valA =                   x valE=                   x destE=15 destM=15
Memory stage :- clk=1 W_stat= 8 icode= 1 rsp=                 254
 		 > valM =                   x valE=                   x destE=15 destM=15
------------------------------------------------------------

------------------------------------------------------------
Fetch stage :- clk=1 D_stat= 8 F_predPC=                  24 f_predPC=                  34 icode= 4 ifun= 0
 		 > rsp =                 254 rA= 2 rB= 4 valC=                   1 D_valP=                  24
Decode stage :- clk=1 E_stat= 8 icode= 3 ifun= 0 rsp =                 254
 		 > valA=                  10 valB=                   0 valC=                   2 destE= 2 destM=15 srcA= 1 srcB=15
Execute stage :- clk=1 M_stat= 8 icode= 2 rsp =                 254
 		 > CND=1 valA =                  10 valE=                  10 destE= 2 destM=15
Memory stage :- clk=1 W_stat= 8 icode= 1 rsp=                 254
 		 > valM =                   x valE=                   x destE=15 destM=15
------------------------------------------------------------

------------------------------------------------------------
Fetch stage :- clk=1 D_stat= 8 F_predPC=                  34 f_predPC=                  44 icode= 4 ifun= 0
 		 > rsp =                 254 rA= 5 rB= 3 valC=                   0 D_valP=                  34
Decode stage :- clk=1 E_stat= 8 icode= 4 ifun= 0 rsp =                 254
 		 > valA=                   2 valB=                 254 valC=                   1 destE= 2 destM=15 srcA= 2 srcB= 4
Execute stage :- clk=1 M_stat= 8 icode= 3 rsp =                 254
 		 > CND=1 valA =                  10 valE=                   2 destE= 2 destM=15
Memory stage :- clk=1 W_stat= 8 icode= 2 rsp=                 254
 		 > valM =                   x valE=                  10 destE= 2 destM=15
------------------------------------------------------------

------------------------------------------------------------
Fetch stage :- clk=1 D_stat= 8 F_predPC=                  44 f_predPC=                  46 icode= 5 ifun= 0
 		 > rsp =                 254 rA= 5 rB= 3 valC=                   0 D_valP=                  44
Decode stage :- clk=1 E_stat= 8 icode= 4 ifun= 0 rsp =                 254
 		 > valA=                  50 valB=                   3 valC=                   0 destE= 2 destM=15 srcA= 5 srcB= 3
Execute stage :- clk=1 M_stat= 8 icode= 4 rsp =                 254
 		 > CND=1 valA =                   2 valE=                 255 destE= 2 destM=15
Memory stage :- clk=1 W_stat= 8 icode= 3 rsp=                 254
 		 > valM =                   x valE=                   2 destE= 2 destM=15
------------------------------------------------------------

------------------------------------------------------------
Fetch stage :- clk=1 D_stat= 8 F_predPC=                  46 f_predPC=                  56 icode= 6 ifun= 0
 		 > rsp =                 254 rA= 9 rB=10 valC=                   0 D_valP=                  46
Decode stage :- clk=1 E_stat= 8 icode= 5 ifun= 0 rsp =                 254
 		 > valA=                  50 valB=                   3 valC=                   0 destE= 2 destM= 5 srcA= 5 srcB= 3
Execute stage :- clk=1 M_stat= 8 icode= 4 rsp =                 254
 		 > CND=1 valA =                  50 valE=                   3 destE= 2 destM=15
Memory stage :- clk=1 W_stat= 8 icode= 4 rsp=                 254
 		 > valM =                   x valE=                 255 destE= 2 destM=15
------------------------------------------------------------

------------------------------------------------------------
Fetch stage :- clk=1 D_stat= 8 F_predPC=                  56 f_predPC=                  58 icode= 7 ifun= 3
 		 > rsp =                 254 rA= 9 rB=10 valC=                  56 D_valP=                  55
Decode stage :- clk=1 E_stat= 8 icode= 6 ifun= 0 rsp =                 254
 		 > valA=              -12345 valB=               12345 valC=                   0 destE=10 destM= 5 srcA= 9 srcB=10
Execute stage :- clk=1 M_stat= 8 icode= 5 rsp =                 254
 		 > CND=1 valA =                  50 valE=                   3 destE= 2 destM= 5
Memory stage :- clk=1 W_stat= 8 icode= 4 rsp=                 254
 		 > valM =                   x valE=                   3 destE= 2 destM=15
------------------------------------------------------------

------------------------------------------------------------
Fetch stage :- clk=1 D_stat= 8 F_predPC=                  58 f_predPC=                  60 icode=10 ifun= 0
 		 > rsp =                 254 rA= 9 rB=15 valC=                  56 D_valP=                  58
Decode stage :- clk=1 E_stat= 8 icode= 7 ifun= 3 rsp =                 254
 		 > valA=                  55 valB=               12345 valC=                  56 destE=15 destM=15 srcA=15 srcB=15
Execute stage :- clk=1 M_stat= 8 icode= 6 rsp =                 254
 		 > CND=1 valA =              -12345 valE=                   0 destE=10 destM= 5
Memory stage :- clk=1 W_stat= 8 icode= 5 rsp=                 254
 		 > valM =                  50 valE=                   3 destE= 2 destM= 5
------------------------------------------------------------

------------------------------------------------------------
Fetch stage :- clk=1 D_stat= 8 F_predPC=                  60 f_predPC=                  80 icode=11 ifun= 0
 		 > rsp =                 254 rA= 9 rB=15 valC=                  56 D_valP=                  60
Decode stage :- clk=1 E_stat= 8 icode=10 ifun= 0 rsp =                 254
 		 > valA=              -12345 valB=                 254 valC=                  56 destE= 4 destM=15 srcA= 9 srcB= 4
Execute stage :- clk=1 M_stat= 8 icode= 7 rsp =                 254
 		 > CND=1 valA =                  55 valE=                   0 destE=15 destM=15
Memory stage :- clk=1 W_stat= 8 icode= 6 rsp=                 254
 		 > valM =                  50 valE=                   0 destE=10 destM= 5
------------------------------------------------------------

------------------------------------------------------------
Fetch stage :- clk=1 D_stat= 8 F_predPC=                  80 f_predPC=                  90 icode= 8 ifun= 0
 		 > rsp =                 254 rA= 9 rB=15 valC=                  80 D_valP=                  69
Decode stage :- clk=1 E_stat= 8 icode=11 ifun= 0 rsp =                 254
 		 > valA=                 253 valB=                 253 valC=                  56 destE= 4 destM= 9 srcA= 4 srcB= 4
Execute stage :- clk=1 M_stat= 8 icode=10 rsp =                 254
 		 > CND=1 valA =              -12345 valE=                 253 destE= 4 destM=15
Memory stage :- clk=1 W_stat= 8 icode= 7 rsp=                 254
 		 > valM =                  50 valE=                   0 destE=15 destM=15
------------------------------------------------------------

------------------------------------------------------------
Fetch stage :- clk=1 D_stat= 8 F_predPC=                  90 f_predPC=                  92 icode= 3 ifun= 0
 		 > rsp =                 254 rA=15 rB= 2 valC=                   2 D_valP=                  90
Decode stage :- clk=1 E_stat= 8 icode= 8 ifun= 0 rsp =                 254
 		 > valA=                  69 valB=                 254 valC=                  80 destE= 4 destM= 9 srcA= 4 srcB= 4
Execute stage :- clk=1 M_stat= 8 icode=11 rsp =                 254
 		 > CND=1 valA =                 253 valE=                 254 destE= 4 destM= 9
Memory stage :- clk=1 W_stat= 8 icode=10 rsp=                 254
 		 > valM =                  50 valE=                 253 destE= 4 destM=15
------------------------------------------------------------
halt
[Done] exit with code=0 in 0.09 seconds

